871497 737882 525
504587 113783 449
750686 536005 509
939353 242293 525
497029 863344 525
389817 511769 449
309296 740265 509
410837 909734 525
679255 840370 525
908879 234937 525
611140 483585 470
47937 42158 314
814687 281074 509
50050 580912 470
7088 238367 443
638043 963830 525
291196 435983 449
978264 983992 427
912611 789377 525
567018 84482 470
157505 762767 509
956371 503052 525
240154 471841 449
838507 557744 525
167291 644874 509
91315 354866 443
704063 696468 411
920460 517482 525
751515 420598 509
191804 541634 470
650652 904143 525
511708 106008 449
326733 219466 443
612702 495156 470
568912 644127 509
19993 910335 525
767318 637274 504
108628 737888 509
604662 137852 470
935997 73853 525
339567 977642 525
116726 492437 449
604258 991326 525
925140 828715 525
900177 730443 525
443067 397434 449
461145 654763 509
508073 884221 525
821257 453526 509
477842 310379 449
870915 54259 525
195693 799296 509
805062 687825 504
372575 556800 470
485801 650 449
451439 423327 418
861259 31569 525
406663 953853 525
917661 984425 507
747246 8428 509
110509 441344 449
761927 643656 504
69182 890532 525
123196 491497 449
975805 439149 525
795925 681104 504
262375 60876 443
180620 290081 443
912320 222163 525
789625 453299 509
140770 357990 443
418819 660226 509
146245 506519 449
919734 442351 525
928730 96847 525
178383 178502 272
948558 859236 507
79619 486753 449
620418 306362 470
30382 211619 383
477365 654684 509
43348 92433 351
608336 505755 470
955498 12774 525
222953 447034 449
399052 660516 509
986545 8287 525
769963 948767 525
974302 931111 507
746850 609825 509
774496 726949 468
232886 859387 525
480555 147712 449
549263 791686 509
655066 850990 525
782903 150943 509
124244 102944 354
799962 568831 509
297486 193045 443
208340 186290 373
691114 598690 509
275442 945833 525
623267 971371 525
611399 906832 525
948799 944469 383
865388 347209 525
224505 628255 509
778146 928413 525
156185 768280 509
755549 372636 509
496231 434690 444
353947 24770 443
273569 256403 407
745293 922509 525
677958 970879 525
236409 971302 525
516812 418901 470
909454 644579 525
643251 803379 504
47132 613419 470
863941 562503 525
475236 917936 525
286983 964322 525
203143 6384 383
415696 188050 449
163124 574933 470
405274 557161 470
200742 476284 449
416533 769574 509
216330 177705 373
998350 700845 525
130772 542089 470
137849 916775 525
337587 132734 443
466040 127083 449
577680 697805 509
986846 17084 525
30826 143358 375
752403 916983 525
973447 209923 525
21446 262568 443
647707 152301 509
61532 195410 383
130514 616833 470
805837 388308 509
676595 45669 509
380777 512966 470
998894 571270 525
39182 816434 509
471812 999592 525
